<<<<<<< HEAD
09/26/19 14:10

File 'web_crawling.py' not found!

-------------------------------------------------------------------------------

09/26/19 14:17

File 'web_crawling.py' not found!
=======
09/27/19 16:51

Problem 1 (5 points):
No file ans1
Score += 0

Problem 2 (5 points):
No file ans2
Score += 0

Problem 3 (10 points):
No file ans3
Score += 0

Problem 4 (10 points):
No file ans4
Score += 0

Problem 5 (15 points):
No file ans5
Score += 0

Code Quality (5 points):
Score += 5

Total score: 5/50 = 10.0%


Comments:
	pickle your results and push pickle files

-------------------------------------------------------------------------------

10/01/19 14:43

Problem 1 (5 points):
Make sure you are getting the mean over all the pages
Score += 0

Problem 2 (5 points):
Only 14 of 15 correct assets for Wells Fargo
Score += 4

Problem 3 (10 points):
Score += 10

Problem 4 (10 points):
Score += 10

Problem 5 (15 points):
Missing 51 of the first 100 urls
Score += 7

Code Quality (5 points):
Score += 5

Total score: 36/50 = 72.0%
>>>>>>> d5e845de8dbfde412f4e548582b60d60f5fb0beb

-------------------------------------------------------------------------------

