01/20/20 11:07

File 'spark.py' not found!

-------------------------------------------------------------------------------

01/20/20 12:24

File 'spark.py' not found!

-------------------------------------------------------------------------------

03/16/20 13:13

File 'spark.py' not found!

-------------------------------------------------------------------------------

