12/07/19 22:50

5.1 (3 points):
Score += 3

5.2 (3 points):
Score += 3

5.3 (3 points):
Score += 3

Completion (1 points):
Score += 1

Total score: 10/10 = 100.0%

Excellent!

-------------------------------------------------------------------------------

